simulation/qsim/proj.msim.vcd
$comment
	File created using the following command:
		vcd file proj.msim.vcd -direction
$end
$date
	Mon May 20 14:35:28 2024
$end
$version
	ModelSim Version 10.1d
$end
$timescale
	1ps
$end
$scope module proj_vlg_vec_tst $end
$var reg 1 ! clk $end
$var reg 1 " reset $end
$var wire 1 # green_MR1 $end
$var wire 1 $ green_MR2 $end
$var wire 1 % green_MR3 $end
$var wire 1 & red_MR1 $end
$var wire 1 ' red_MR2 $end
$var wire 1 ( red_MR3 $end
$var wire 1 ) yellow_MR1 $end
$var wire 1 * yellow_MR2 $end
$var wire 1 + yellow_MR3 $end
$scope module i1 $end
$var wire 1 , gnd $end
$var wire 1 - vcc $end
$var wire 1 . unknown $end
$var tri1 1 / devclrn $end
$var tri1 1 0 devpor $end
$var tri1 1 1 devoe $end
$var wire 1 2 ~QUARTUS_CREATED_GND~I_combout $end
$var wire 1 3 clk~input_o $end
$var wire 1 4 clk~inputCLKENA0_outclk $end
$var wire 1 5 counter[0]~3_combout $end
$var wire 1 6 reset~input_o $end
$var wire 1 7 counter[3]~0_combout $end
$var wire 1 8 counter~2_combout $end
$var wire 1 9 counter[0]~DUPLICATE_q $end
$var wire 1 : counter~1_combout $end
$var wire 1 ; state.S_GREEN_MR1~q $end
$var wire 1 < Selector2~0_combout $end
$var wire 1 = state.S_GREEN_MR2~q $end
$var wire 1 > Selector3~0_combout $end
$var wire 1 ? state.S_GREEN_MR3~q $end
$var wire 1 @ Selector0~0_combout $end
$var wire 1 A state.S_RED~q $end
$var wire 1 B Selector1~0_combout $end
$var wire 1 C state.S_GREEN_MR1~DUPLICATE_q $end
$var wire 1 D state.S_GREEN_MR2~DUPLICATE_q $end
$var wire 1 E state.S_GREEN_MR3~DUPLICATE_q $end
$var wire 1 F red_MR3~0_combout $end
$var wire 1 G counter [3] $end
$var wire 1 H counter [2] $end
$var wire 1 I counter [1] $end
$var wire 1 J counter [0] $end
$upscope $end
$upscope $end
$enddefinitions $end
#0
$dumpvars
0!
0"
0#
0$
0%
1&
1'
0(
0)
0*
0+
0,
1-
x.
1/
10
11
02
03
04
15
06
07
08
09
0:
0;
0<
0=
0>
0?
0@
0A
0B
0C
0D
0E
1F
0J
0I
0H
0G
$end
#5000
1"
16
#9000
1!
13
14
#10000
0"
0!
06
03
04
#15000
1"
16
#19000
1!
13
14
#20000
0"
0!
06
03
04
#25000
1"
16
#29000
1!
13
14
#30000
0"
0!
06
03
04
#35000
1"
16
#39000
1!
13
14
#40000
0"
0!
06
03
04
#45000
1"
16
#49000
1!
13
14
#50000
0"
0!
06
03
04
#55000
1"
16
#59000
1!
13
14
#60000
0"
0!
06
03
04
#65000
1"
16
#69000
1!
13
14
#70000
0"
0!
06
03
04
#75000
1"
16
#79000
1!
13
14
#80000
0"
0!
06
03
04
#85000
1"
16
#89000
1!
13
14
#90000
0"
0!
06
03
04
#95000
1"
16
#99000
1!
13
14
#100000
0"
0!
06
03
04
#105000
1"
16
#109000
1!
13
14
#110000
0"
0!
06
03
04
#115000
1"
16
#119000
1!
13
14
#120000
0"
0!
06
03
04
#125000
1"
16
#129000
1!
13
14
#130000
0"
0!
06
03
04
#135000
1"
16
#139000
1!
13
14
#140000
0"
0!
06
03
04
#145000
1"
16
#149000
1!
13
14
#150000
0"
0!
06
03
04
#155000
1"
16
#159000
1!
13
14
#160000
0"
0!
06
03
04
#165000
1"
16
#169000
1!
13
14
#170000
0"
0!
06
03
04
#175000
1"
16
#179000
1!
13
14
#180000
0"
0!
06
03
04
#185000
1"
16
#189000
1!
13
14
#190000
0"
0!
06
03
04
#195000
1"
16
#199000
1!
13
14
#200000
0"
0!
06
03
04
#205000
1"
16
#209000
1!
13
14
#210000
0"
0!
06
03
04
#215000
1"
16
#219000
1!
13
14
#220000
0"
0!
06
03
04
#225000
1"
16
#229000
1!
13
14
#230000
0"
0!
06
03
04
#235000
1"
16
#239000
1!
13
14
#240000
0"
0!
06
03
04
#245000
1"
16
#249000
1!
13
14
#250000
0"
0!
06
03
04
#255000
1"
16
#259000
1!
13
14
#260000
0"
0!
06
03
04
#265000
1"
16
#269000
1!
13
14
#270000
0"
0!
06
03
04
#275000
1"
16
#279000
1!
13
14
#280000
0"
0!
06
03
04
#285000
1"
16
#289000
1!
13
14
#290000
0"
0!
06
03
04
#295000
1"
16
#299000
1!
13
14
#300000
0"
0!
06
03
04
#305000
1"
16
#309000
1!
13
14
#310000
0"
0!
06
03
04
#315000
1"
16
#319000
1!
13
14
#320000
0"
0!
06
03
04
#325000
1"
16
#329000
1!
13
14
#330000
0"
0!
06
03
04
#335000
1"
16
#339000
1!
13
14
#340000
0"
0!
06
03
04
#345000
1"
16
#349000
1!
13
14
#350000
0"
0!
06
03
04
#355000
1"
16
#359000
1!
13
14
#360000
0"
0!
06
03
04
#365000
1"
16
#369000
1!
13
14
#370000
0"
0!
06
03
04
#375000
1"
16
#379000
1!
13
14
#380000
0"
0!
06
03
04
#385000
1"
16
#389000
1!
13
14
#390000
0"
0!
06
03
04
#395000
1"
16
#399000
1!
13
14
#400000
0"
0!
06
03
04
#405000
1"
16
#409000
1!
13
14
#410000
0"
0!
06
03
04
#415000
1"
16
#419000
1!
13
14
#420000
0"
0!
06
03
04
#425000
1"
16
#429000
1!
13
14
#430000
0"
0!
06
03
04
#435000
1"
16
#439000
1!
13
14
#440000
0"
0!
06
03
04
#445000
1"
16
#449000
1!
13
14
#450000
0"
0!
06
03
04
#455000
1"
16
#459000
1!
13
14
#460000
0"
0!
06
03
04
#465000
1"
16
#469000
1!
13
14
#470000
0"
0!
06
03
04
#475000
1"
16
#479000
1!
13
14
#480000
0"
0!
06
03
04
#485000
1"
16
#489000
1!
13
14
#490000
0"
0!
06
03
04
#495000
1"
16
#499000
1!
13
14
#500000
0"
0!
06
03
04
#505000
1"
16
#509000
1!
13
14
#510000
0"
0!
06
03
04
#515000
1"
16
#519000
1!
13
14
#520000
0"
0!
06
03
04
#525000
1"
16
#529000
1!
13
14
#530000
0"
0!
06
03
04
#535000
1"
16
#539000
1!
13
14
#540000
0"
0!
06
03
04
#545000
1"
16
#549000
1!
13
14
#550000
0"
0!
06
03
04
#555000
1"
16
#559000
1!
13
14
#560000
0"
0!
06
03
04
#565000
1"
16
#569000
1!
13
14
#570000
0"
0!
06
03
04
#575000
1"
16
#579000
1!
13
14
#580000
0"
0!
06
03
04
#585000
1"
16
#589000
1!
13
14
#590000
0"
0!
06
03
04
#595000
1"
16
#599000
1!
13
14
#600000
0"
0!
06
03
04
#605000
1"
16
#609000
1!
13
14
#610000
0"
0!
06
03
04
#615000
1"
16
#619000
1!
13
14
#620000
0"
0!
06
03
04
#625000
1"
16
#629000
1!
13
14
#630000
0"
0!
06
03
04
#635000
1"
16
#639000
1!
13
14
#640000
0"
0!
06
03
04
#645000
1"
16
#649000
1!
13
14
#650000
0"
0!
06
03
04
#655000
1"
16
#659000
1!
13
14
#660000
0"
0!
06
03
04
#665000
1"
16
#669000
1!
13
14
#670000
0"
0!
06
03
04
#675000
1"
16
#679000
1!
13
14
#680000
0"
0!
06
03
04
#685000
1"
16
#689000
1!
13
14
#690000
0"
0!
06
03
04
#695000
1"
16
#699000
1!
13
14
#700000
0"
0!
06
03
04
#705000
1"
16
#709000
1!
13
14
#710000
0"
0!
06
03
04
#715000
1"
16
#719000
1!
13
14
#720000
0"
0!
06
03
04
#725000
1"
16
#729000
1!
13
14
#730000
0"
0!
06
03
04
#735000
1"
16
#739000
1!
13
14
#740000
0"
0!
06
03
04
#745000
1"
16
#749000
1!
13
14
#750000
0"
0!
06
03
04
#755000
1"
16
#759000
1!
13
14
#760000
0"
0!
06
03
04
#765000
1"
16
#769000
1!
13
14
#770000
0"
0!
06
03
04
#775000
1"
16
#779000
1!
13
14
#780000
0"
0!
06
03
04
#785000
1"
16
#789000
1!
13
14
#790000
0"
0!
06
03
04
#795000
1"
16
#799000
1!
13
14
#800000
0"
0!
06
03
04
#805000
1"
16
#809000
1!
13
14
#810000
0"
0!
06
03
04
#815000
1"
16
#819000
1!
13
14
#820000
0"
0!
06
03
04
#825000
1"
16
#829000
1!
13
14
#830000
0"
0!
06
03
04
#835000
1"
16
#839000
1!
13
14
#840000
0"
0!
06
03
04
#845000
1"
16
#849000
1!
13
14
#850000
0"
0!
06
03
04
#855000
1"
16
#859000
1!
13
14
#860000
0"
0!
06
03
04
#865000
1"
16
#869000
1!
13
14
#870000
0"
0!
06
03
04
#875000
1"
16
#879000
1!
13
14
#880000
0"
0!
06
03
04
#885000
1"
16
#889000
1!
13
14
#890000
0"
0!
06
03
04
#895000
1"
16
#899000
1!
13
14
#900000
0"
0!
06
03
04
#905000
1"
16
#909000
1!
13
14
#910000
0"
0!
06
03
04
#915000
1"
16
#919000
1!
13
14
#920000
0"
0!
06
03
04
#925000
1"
16
#929000
1!
13
14
#930000
0"
0!
06
03
04
#935000
1"
16
#939000
1!
13
14
#940000
0"
0!
06
03
04
#945000
1"
16
#949000
1!
13
14
#950000
0"
0!
06
03
04
#955000
1"
16
#959000
1!
13
14
#960000
0"
0!
06
03
04
#965000
1"
16
#969000
1!
13
14
#970000
0"
0!
06
03
04
#975000
1"
16
#979000
1!
13
14
#980000
0"
0!
06
03
04
#985000
1"
16
#989000
1!
13
14
#990000
0"
0!
06
03
04
#995000
1"
16
#999000
1!
13
14
